{"data": [{"certificateNumber": "6036-9125-7600-0376-2202", "addressLine1": "45 Paddock Heights", "addressLine2": "Twyford", "addressLine3": null, "addressLine4": null, "postcode": "RG10 0AP", "postTown": "READING", "council": "Wokingham", "constituency": "Wokingham", "currentEnergyEfficiencyBand": "D", "registrationDate": "2026-05-07", "uprn": 14040755, "schemaType": "RdSAP-Schema-21.0.1"}, {"certificateNumber": "9800-3800-0622-0393-3643", "addressLine1": "5 Paddock Heights", "addressLine2": "Twyford", "addressLine3": null, "addressLine4": null, "postcode": "RG10 0AP", "postTown": "READING", "council": "Wokingham", "constituency": "Wokingham", "currentEnergyEfficiencyBand": "D", "registrationDate": "2024-06-11", "uprn": 14040758, "schemaType": "RdSAP-Schema-20.0.0"}, {"certificateNumber": "2726-0040-5216-7602-4200", "addressLine1": "47 Paddock Heights", "addressLine2": "Twyford", "addressLine3": null, "addressLine4": null, "postcode": "RG10 0AP", "postTown": "READING", "council": "Wokingham", "constituency": "Wokingham", "currentEnergyEfficiencyBand": "F", "registrationDate": "2022-06-23", "uprn": 14040756, "schemaType": "RdSAP-Schema-20.0.0"}, {"certificateNumber": "7100-7454-0022-7020-0923", "addressLine1": "35 Paddock Heights", "addressLine2": "Twyford", "addressLine3": null, "addressLine4": null, "postcode": "RG10 0AP", "postTown": "READING", "council": "Wokingham", "constituency": "Wokingham", "currentEnergyEfficiencyBand": "D", "registrationDate": "2022-01-27", "uprn": 14040750, "schemaType": "RdSAP-Schema-20.0.0"}, {"certificateNumber": "5900-4735-0122-6097-3193", "addressLine1": "43 Paddock Heights", "addressLine2": "Twyford", "addressLine3": null, "addressLine4": null, "postcode": "RG10 0AP", "postTown": "READING", "council": "Wokingham", "constituency": "Wokingham", "currentEnergyEfficiencyBand": "C", "registrationDate": "2021-09-19", "uprn": 14040754, "schemaType": "RdSAP-Schema-20.0.0"}], "pagination": {"totalRecords": 13, "currentPage": 1, "totalPages": 3, "nextPage": 2, "prevPage": null, "pageSize": 5}}