{"data": [{"certificateNumber": "7311-5195-5002-0602-6702", "addressLine1": "51 Robin Hood Road", "addressLine2": "Knaphill", "addressLine3": null, "addressLine4": null, "postcode": "GU21 2NA", "postTown": "WOKING", "council": "Woking", "constituency": "Woking", "currentEnergyEfficiencyBand": "D", "registrationDate": "2025-02-14", "uprn": 100061655771, "schemaType": "RdSAP-Schema-20.0.0"}, {"certificateNumber": "7416-5164-5002-0695-6702", "addressLine1": "61 Robin Hood Road", "addressLine2": "Knaphill", "addressLine3": null, "addressLine4": null, "postcode": "GU21 2NA", "postTown": "WOKING", "council": "Woking", "constituency": "Woking", "currentEnergyEfficiencyBand": "C", "registrationDate": "2024-05-15", "uprn": 100061655776, "schemaType": "RdSAP-Schema-20.0.0"}, {"certificateNumber": "5734-1627-1300-0376-5206", "addressLine1": "57 Robin Hood Road", "addressLine2": "Knaphill", "addressLine3": null, "addressLine4": null, "postcode": "GU21 2NA", "postTown": "WOKING", "council": "Woking", "constituency": "Woking", "currentEnergyEfficiencyBand": "C", "registrationDate": "2024-03-06", "uprn": 100061655774, "schemaType": "RdSAP-Schema-20.0.0"}, {"certificateNumber": "2947-4331-7394-2151-1093", "addressLine1": "63 Robin Hood Road", "addressLine2": "Knaphill", "addressLine3": null, "addressLine4": null, "postcode": "GU21 2NA", "postTown": "WOKING", "council": "Woking", "constituency": "Woking", "currentEnergyEfficiencyBand": "C", "registrationDate": "2023-02-20", "uprn": 100061655777, "schemaType": "RdSAP-Schema-20.0.0"}, {"certificateNumber": "9387-1006-5207-5362-1204", "addressLine1": "61 Robin Hood Road", "addressLine2": "Knaphill", "addressLine3": null, "addressLine4": null, "postcode": "GU21 2NA", "postTown": "WOKING", "council": "Woking", "constituency": "Woking", "currentEnergyEfficiencyBand": "F", "registrationDate": "2022-03-22", "uprn": 100061655776, "schemaType": "RdSAP-Schema-20.0.0"}], "pagination": {"totalRecords": 11, "currentPage": 1, "totalPages": 3, "nextPage": 2, "prevPage": null, "pageSize": 5}}