{"data": [{"certificateNumber": "0340-2835-0660-2206-7371", "addressLine1": "12 Segrave Close", "addressLine2": null, "addressLine3": null, "addressLine4": null, "postcode": "KT13 0TD", "postTown": "WEYBRIDGE", "council": "Elmbridge", "constituency": "Runnymede and Weybridge", "currentEnergyEfficiencyBand": "C", "registrationDate": "2026-06-06", "uprn": 100061347170, "schemaType": "RdSAP-Schema-21.0.1"}, {"certificateNumber": "2179-6322-1911-1219-5511", "addressLine1": "24", "addressLine2": "Segrave Close", "addressLine3": null, "addressLine4": null, "postcode": "KT13 0TD", "postTown": "Weybridge", "council": "Elmbridge", "constituency": "Runnymede and Weybridge", "currentEnergyEfficiencyBand": "C", "registrationDate": "2026-02-25", "uprn": 10012066790, "schemaType": "RdSAP-Schema-21.0.1"}, {"certificateNumber": "2539-3047-4202-2125-3200", "addressLine1": "16, Segrave Close", "addressLine2": null, "addressLine3": null, "addressLine4": null, "postcode": "KT13 0TD", "postTown": "WEYBRIDGE", "council": "Elmbridge", "constituency": "Runnymede and Weybridge", "currentEnergyEfficiencyBand": "D", "registrationDate": "2025-02-27", "uprn": 100061347174, "schemaType": "RdSAP-Schema-20.0.0"}, {"certificateNumber": "2718-3037-9204-1104-6204", "addressLine1": "15 Segrave Close", "addressLine2": null, "addressLine3": null, "addressLine4": null, "postcode": "KT13 0TD", "postTown": "WEYBRIDGE", "council": "Elmbridge", "constituency": "Runnymede and Weybridge", "currentEnergyEfficiencyBand": "C", "registrationDate": "2024-05-02", "uprn": 100061347173, "schemaType": "RdSAP-Schema-20.0.0"}, {"certificateNumber": "0041-3025-8204-3187-6200", "addressLine1": "22 Segrave Close", "addressLine2": null, "addressLine3": null, "addressLine4": null, "postcode": "KT13 0TD", "postTown": "WEYBRIDGE", "council": "Elmbridge", "constituency": "Runnymede and Weybridge", "currentEnergyEfficiencyBand": "C", "registrationDate": "2023-04-05", "uprn": 100061347180, "schemaType": "RdSAP-Schema-20.0.0"}], "pagination": {"totalRecords": 24, "currentPage": 1, "totalPages": 5, "nextPage": 2, "prevPage": null, "pageSize": 5}}