{"data": [{"certificateNumber": "2135-2629-3509-0723-6296", "addressLine1": "185 Boyn Valley Road", "addressLine2": null, "addressLine3": null, "addressLine4": null, "postcode": "SL6 4DT", "postTown": "MAIDENHEAD", "council": "Windsor and Maidenhead", "constituency": "Maidenhead", "currentEnergyEfficiencyBand": "C", "registrationDate": "2025-11-18", "uprn": 100080351366, "schemaType": "RdSAP-Schema-21.0.1"}, {"certificateNumber": "0033-1208-1105-5333-0404", "addressLine1": "135 Boyn Valley Road", "addressLine2": null, "addressLine3": null, "addressLine4": null, "postcode": "SL6 4DT", "postTown": "MAIDENHEAD", "council": "Windsor and Maidenhead", "constituency": "Maidenhead", "currentEnergyEfficiencyBand": "D", "registrationDate": "2025-07-07", "uprn": 100080351343, "schemaType": "RdSAP-Schema-21.0.1"}, {"certificateNumber": "9691-3051-1206-9125-5204", "addressLine1": "123 Boyn Valley Road", "addressLine2": null, "addressLine3": null, "addressLine4": null, "postcode": "SL6 4DT", "postTown": "MAIDENHEAD", "council": "Windsor and Maidenhead", "constituency": "Maidenhead", "currentEnergyEfficiencyBand": "D", "registrationDate": "2025-06-12", "uprn": 100080351337, "schemaType": "RdSAP-Schema-20.0.0"}, {"certificateNumber": "1735-9024-4400-0962-9296", "addressLine1": "139 Boyn Valley Road", "addressLine2": null, "addressLine3": null, "addressLine4": null, "postcode": "SL6 4DT", "postTown": "MAIDENHEAD", "council": "Windsor and Maidenhead", "constituency": "Maidenhead", "currentEnergyEfficiencyBand": "D", "registrationDate": "2025-04-13", "uprn": 100080351345, "schemaType": "RdSAP-Schema-20.0.0"}, {"certificateNumber": "0330-2873-7420-2895-0621", "addressLine1": "143 Boyn Valley Road", "addressLine2": null, "addressLine3": null, "addressLine4": null, "postcode": "SL6 4DT", "postTown": "MAIDENHEAD", "council": "Windsor and Maidenhead", "constituency": "Maidenhead", "currentEnergyEfficiencyBand": "C", "registrationDate": "2025-02-17", "uprn": 100080351347, "schemaType": "RdSAP-Schema-20.0.0"}], "pagination": {"totalRecords": 27, "currentPage": 1, "totalPages": 6, "nextPage": 2, "prevPage": null, "pageSize": 5}}