{"data": [{"certificateNumber": "9036-8039-7500-0665-8292", "addressLine1": "23a Nightingale Way", "addressLine2": "Denham", "addressLine3": null, "addressLine4": null, "postcode": "UB9 5JH", "postTown": "UXBRIDGE", "council": "Buckinghamshire", "constituency": "Beaconsfield", "currentEnergyEfficiencyBand": "B", "registrationDate": "2026-01-15", "uprn": 10097276434, "schemaType": "SAP-Schema-19.1.0"}, {"certificateNumber": "0380-3695-2190-2996-6001", "addressLine1": "23b Nightingale Way", "addressLine2": "Denham", "addressLine3": null, "addressLine4": null, "postcode": "UB9 5JH", "postTown": "UXBRIDGE", "council": "Buckinghamshire", "constituency": "Beaconsfield", "currentEnergyEfficiencyBand": "B", "registrationDate": "2026-01-15", "uprn": 10097276435, "schemaType": "SAP-Schema-19.1.0"}, {"certificateNumber": "0912-1208-7705-9641-0500", "addressLine1": "2 Nightingale Way", "addressLine2": "Denham", "addressLine3": null, "addressLine4": null, "postcode": "UB9 5JH", "postTown": "UXBRIDGE", "council": "Buckinghamshire", "constituency": "Beaconsfield", "currentEnergyEfficiencyBand": "C", "registrationDate": "2025-09-16", "uprn": 100080497251, "schemaType": "RdSAP-Schema-21.0.1"}, {"certificateNumber": "0390-2431-6530-2505-7245", "addressLine1": "9 Nightingale Way", "addressLine2": "Denham", "addressLine3": null, "addressLine4": null, "postcode": "UB9 5JH", "postTown": "UXBRIDGE", "council": "Buckinghamshire", "constituency": "Beaconsfield", "currentEnergyEfficiencyBand": "C", "registrationDate": "2025-07-13", "uprn": 100080497258, "schemaType": "RdSAP-Schema-21.0.1"}, {"certificateNumber": "5835-4127-2400-0649-8222", "addressLine1": "4 Nightingale Way", "addressLine2": "Denham", "addressLine3": null, "addressLine4": null, "postcode": "UB9 5JH", "postTown": "UXBRIDGE", "council": "Buckinghamshire", "constituency": "Beaconsfield", "currentEnergyEfficiencyBand": "D", "registrationDate": "2025-03-31", "uprn": 100080497253, "schemaType": "RdSAP-Schema-20.0.0"}], "pagination": {"totalRecords": 21, "currentPage": 1, "totalPages": 5, "nextPage": 2, "prevPage": null, "pageSize": 5}}