{"data": [{"certificateNumber": "0070-3049-9205-3575-9200", "addressLine1": "48 Thurlby Way", "addressLine2": null, "addressLine3": null, "addressLine4": null, "postcode": "SL6 3YZ", "postTown": "MAIDENHEAD", "council": "Windsor and Maidenhead", "constituency": "Maidenhead", "currentEnergyEfficiencyBand": "D", "registrationDate": "2025-05-03", "uprn": 100080366447, "schemaType": "RdSAP-Schema-20.0.0"}, {"certificateNumber": "2273-3932-4209-1247-5204", "addressLine1": "10 Thurlby Way", "addressLine2": null, "addressLine3": null, "addressLine4": null, "postcode": "SL6 3YZ", "postTown": "MAIDENHEAD", "council": "Windsor and Maidenhead", "constituency": "Maidenhead", "currentEnergyEfficiencyBand": "D", "registrationDate": "2023-11-24", "uprn": 100080366421, "schemaType": "RdSAP-Schema-20.0.0"}, {"certificateNumber": "8317-4623-4080-0649-3292", "addressLine1": "50 Thurlby Way", "addressLine2": null, "addressLine3": null, "addressLine4": null, "postcode": "SL6 3YZ", "postTown": "MAIDENHEAD", "council": "Windsor and Maidenhead", "constituency": "Maidenhead", "currentEnergyEfficiencyBand": "D", "registrationDate": "2023-07-11", "uprn": 100080366448, "schemaType": "RdSAP-Schema-20.0.0"}, {"certificateNumber": "2212-1629-4089-0698-3226", "addressLine1": "1 Thurlby Way", "addressLine2": null, "addressLine3": null, "addressLine4": null, "postcode": "SL6 3YZ", "postTown": "MAIDENHEAD", "council": "Windsor and Maidenhead", "constituency": "Maidenhead", "currentEnergyEfficiencyBand": "D", "registrationDate": "2022-11-28", "uprn": 100080366412, "schemaType": "RdSAP-Schema-20.0.0"}, {"certificateNumber": "2060-3020-7201-5622-6204", "addressLine1": "16 Thurlby Way", "addressLine2": null, "addressLine3": null, "addressLine4": null, "postcode": "SL6 3YZ", "postTown": "MAIDENHEAD", "council": "Windsor and Maidenhead", "constituency": "Maidenhead", "currentEnergyEfficiencyBand": "D", "registrationDate": "2022-09-27", "uprn": 100080366427, "schemaType": "RdSAP-Schema-20.0.0"}], "pagination": {"totalRecords": 28, "currentPage": 1, "totalPages": 6, "nextPage": 2, "prevPage": null, "pageSize": 5}}