{"data": [{"certificateNumber": "9136-7829-2500-0533-7202", "addressLine1": "Millburn", "addressLine2": "Wantage Road", "addressLine3": "Harwell", "addressLine4": null, "postcode": "OX11 0LL", "postTown": "DIDCOT", "council": "Vale of White Horse", "constituency": "Didcot and Wantage", "currentEnergyEfficiencyBand": "D", "registrationDate": "2026-01-07", "uprn": 10014024181, "schemaType": "RdSAP-Schema-21.0.1"}, {"certificateNumber": "8734-4528-7400-0339-0206", "addressLine1": "Droke", "addressLine2": "Wantage Road", "addressLine3": "Harwell", "addressLine4": null, "postcode": "OX11 0LL", "postTown": "DIDCOT", "council": "Vale of White Horse", "constituency": "Didcot and Wantage", "currentEnergyEfficiencyBand": "B", "registrationDate": "2024-08-02", "uprn": 100120933997, "schemaType": "RdSAP-Schema-20.0.0"}, {"certificateNumber": "5539-7926-1000-0154-6202", "addressLine1": "AMBERWOOD", "addressLine2": "WANTAGE ROAD", "addressLine3": "HARWELL", "addressLine4": null, "postcode": "OX11 0LL", "postTown": "DIDCOT", "council": "Vale of White Horse", "constituency": "Didcot and Wantage", "currentEnergyEfficiencyBand": "E", "registrationDate": "2021-06-07", "uprn": 100120933991, "schemaType": "RdSAP-Schema-20.0.0"}, {"certificateNumber": "9310-2887-6090-2100-7171", "addressLine1": "DUNAVERTY", "addressLine2": "WANTAGE ROAD", "addressLine3": "HARWELL", "addressLine4": null, "postcode": "OX11 0LL", "postTown": "DIDCOT", "council": "Vale of White Horse", "constituency": "Didcot and Wantage", "currentEnergyEfficiencyBand": "D", "registrationDate": "2020-11-04", "uprn": 100120933998, "schemaType": "RdSAP-Schema-20.0.0"}, {"certificateNumber": "7000-4883-0322-6093-3103", "addressLine1": "CHERRY CROFT", "addressLine2": "WANTAGE ROAD", "addressLine3": "HARWELL", "addressLine4": null, "postcode": "OX11 0LL", "postTown": "DIDCOT", "council": "Vale of White Horse", "constituency": "Didcot and Wantage", "currentEnergyEfficiencyBand": "D", "registrationDate": "2020-10-21", "uprn": 100120933995, "schemaType": "RdSAP-Schema-20.0.0"}], "pagination": {"totalRecords": 11, "currentPage": 1, "totalPages": 3, "nextPage": 2, "prevPage": null, "pageSize": 5}}