{"data": [{"certificateNumber": "9370-2393-9590-2305-7675", "addressLine1": "57 Rusham Road", "addressLine2": null, "addressLine3": null, "addressLine4": null, "postcode": "TW20 9LP", "postTown": "EGHAM", "council": "Runnymede", "constituency": "Runnymede and Weybridge", "currentEnergyEfficiencyBand": "C", "registrationDate": "2025-11-07", "uprn": 100062599863, "schemaType": "RdSAP-Schema-21.0.1"}, {"certificateNumber": "0300-2904-5580-2405-1361", "addressLine1": "32 Rusham Road", "addressLine2": null, "addressLine3": null, "addressLine4": null, "postcode": "TW20 9LP", "postTown": "EGHAM", "council": "Runnymede", "constituency": "Runnymede and Weybridge", "currentEnergyEfficiencyBand": "C", "registrationDate": "2025-08-05", "uprn": 100061502711, "schemaType": "RdSAP-Schema-21.0.1"}, {"certificateNumber": "7500-3947-0522-6394-3743", "addressLine1": "59 Rusham Road", "addressLine2": null, "addressLine3": null, "addressLine4": null, "postcode": "TW20 9LP", "postTown": "EGHAM", "council": "Runnymede", "constituency": "Runnymede and Weybridge", "currentEnergyEfficiencyBand": "C", "registrationDate": "2024-03-14", "uprn": 100062599864, "schemaType": "RdSAP-Schema-20.0.0"}, {"certificateNumber": "0350-2954-1370-2994-1521", "addressLine1": "41 Rusham Road", "addressLine2": null, "addressLine3": null, "addressLine4": null, "postcode": "TW20 9LP", "postTown": "EGHAM", "council": "Runnymede", "constituency": "Runnymede and Weybridge", "currentEnergyEfficiencyBand": "D", "registrationDate": "2024-03-14", "uprn": 100061502720, "schemaType": "RdSAP-Schema-20.0.0"}, {"certificateNumber": "0310-2902-1320-2894-2451", "addressLine1": "52 Rusham Road", "addressLine2": null, "addressLine3": null, "addressLine4": null, "postcode": "TW20 9LP", "postTown": "EGHAM", "council": "Runnymede", "constituency": "Runnymede and Weybridge", "currentEnergyEfficiencyBand": "E", "registrationDate": "2024-02-12", "uprn": 100061502729, "schemaType": "RdSAP-Schema-20.0.0"}], "pagination": {"totalRecords": 41, "currentPage": 1, "totalPages": 9, "nextPage": 2, "prevPage": null, "pageSize": 5}}