{"data": [{"certificateNumber": "0380-2297-8640-2426-0171", "addressLine1": "17 Haydon Road", "addressLine2": null, "addressLine3": null, "addressLine4": null, "postcode": "OX11 7JB", "postTown": "DIDCOT", "council": "South Oxfordshire", "constituency": "Didcot and Wantage", "currentEnergyEfficiencyBand": "C", "registrationDate": "2026-04-29", "uprn": 100120856201, "schemaType": "RdSAP-Schema-21.0.1"}, {"certificateNumber": "7434-8621-7400-0265-1206", "addressLine1": "9 Haydon Road", "addressLine2": null, "addressLine3": null, "addressLine4": null, "postcode": "OX11 7JB", "postTown": "DIDCOT", "council": "South Oxfordshire", "constituency": "Didcot and Wantage", "currentEnergyEfficiencyBand": "D", "registrationDate": "2024-09-05", "uprn": 100120856193, "schemaType": "RdSAP-Schema-20.0.0"}, {"certificateNumber": "0330-2636-0370-2704-7561", "addressLine1": "15 Haydon Road", "addressLine2": null, "addressLine3": null, "addressLine4": null, "postcode": "OX11 7JB", "postTown": "DIDCOT", "council": "South Oxfordshire", "constituency": "Didcot and Wantage", "currentEnergyEfficiencyBand": "D", "registrationDate": "2024-03-08", "uprn": 100120856199, "schemaType": "RdSAP-Schema-20.0.0"}, {"certificateNumber": "0300-2775-9210-2907-3925", "addressLine1": "27 Haydon Road", "addressLine2": null, "addressLine3": null, "addressLine4": null, "postcode": "OX11 7JB", "postTown": "DIDCOT", "council": "South Oxfordshire", "constituency": "Didcot and Wantage", "currentEnergyEfficiencyBand": "C", "registrationDate": "2023-09-08", "uprn": 100120856210, "schemaType": "RdSAP-Schema-20.0.0"}, {"certificateNumber": "0154-3029-7201-1077-9204", "addressLine1": "Annexe", "addressLine2": "27 Haydon Road", "addressLine3": null, "addressLine4": null, "postcode": "OX11 7JB", "postTown": "DIDCOT", "council": "South Oxfordshire", "constituency": "Didcot and Wantage", "currentEnergyEfficiencyBand": "D", "registrationDate": "2023-09-08", "uprn": 10033013206, "schemaType": "RdSAP-Schema-20.0.0"}], "pagination": {"totalRecords": 11, "currentPage": 1, "totalPages": 3, "nextPage": 2, "prevPage": null, "pageSize": 5}}