{"data": [{"certificateNumber": "6636-7927-5500-0183-9202", "addressLine1": "92a Norden Road", "addressLine2": null, "addressLine3": null, "addressLine4": null, "postcode": "SL6 4AY", "postTown": "MAIDENHEAD", "council": "Windsor and Maidenhead", "constituency": "Maidenhead", "currentEnergyEfficiencyBand": "D", "registrationDate": "2026-03-09", "uprn": 100080361242, "schemaType": "RdSAP-Schema-21.0.1"}, {"certificateNumber": "1200-8282-0222-0522-3653", "addressLine1": "72 Norden Road", "addressLine2": null, "addressLine3": null, "addressLine4": null, "postcode": "SL6 4AY", "postTown": "MAIDENHEAD", "council": "Windsor and Maidenhead", "constituency": "Maidenhead", "currentEnergyEfficiencyBand": "D", "registrationDate": "2025-06-29", "uprn": 100080361238, "schemaType": "RdSAP-Schema-21.0.0"}, {"certificateNumber": "9096-3023-1202-2835-3204", "addressLine1": "92 Norden Road", "addressLine2": null, "addressLine3": null, "addressLine4": null, "postcode": "SL6 4AY", "postTown": "MAIDENHEAD", "council": "Windsor and Maidenhead", "constituency": "Maidenhead", "currentEnergyEfficiencyBand": "D", "registrationDate": "2025-02-11", "uprn": 100080361243, "schemaType": "RdSAP-Schema-20.0.0"}, {"certificateNumber": "2143-1533-5119-6131-3915", "addressLine1": "94 Norden Road", "addressLine2": null, "addressLine3": null, "addressLine4": null, "postcode": "SL6 4AY", "postTown": "MAIDENHEAD", "council": "Windsor and Maidenhead", "constituency": "Maidenhead", "currentEnergyEfficiencyBand": "D", "registrationDate": "2024-11-22", "uprn": 100080361244, "schemaType": "RdSAP-Schema-20.0.0"}, {"certificateNumber": "2149-4752-4665-8508-7825", "addressLine1": "22B Norden Road", "addressLine2": "Slough", "addressLine3": null, "addressLine4": null, "postcode": "SL6 4AY", "postTown": null, "council": "Windsor and Maidenhead", "constituency": "Maidenhead", "currentEnergyEfficiencyBand": "C", "registrationDate": "2024-05-16", "uprn": 100080361192, "schemaType": "RdSAP-Schema-20.0.0"}], "pagination": {"totalRecords": 51, "currentPage": 1, "totalPages": 11, "nextPage": 2, "prevPage": null, "pageSize": 5}}