{"data": [{"certificateNumber": "1690-7648-0522-5591-3953", "addressLine1": "83 Westfield Road", "addressLine2": null, "addressLine3": null, "addressLine4": null, "postcode": "GU22 9PX", "postTown": "WOKING", "council": "Woking", "constituency": "Woking", "currentEnergyEfficiencyBand": "D", "registrationDate": "2025-11-17", "uprn": 100061660932, "schemaType": "RdSAP-Schema-21.0.1"}, {"certificateNumber": "5435-8724-2400-0017-9222", "addressLine1": "91 Westfield Road", "addressLine2": null, "addressLine3": null, "addressLine4": null, "postcode": "GU22 9PX", "postTown": "WOKING", "council": "Woking", "constituency": "Woking", "currentEnergyEfficiencyBand": "D", "registrationDate": "2025-04-25", "uprn": 100061660939, "schemaType": "RdSAP-Schema-20.0.0"}, {"certificateNumber": "2621-9681-3151-5329-1992", "addressLine1": "87 Westfield Road", "addressLine2": "Westfield", "addressLine3": null, "addressLine4": null, "postcode": "GU22 9PX", "postTown": "WOKING", "council": "Woking", "constituency": "Woking", "currentEnergyEfficiencyBand": "D", "registrationDate": "2024-10-14", "uprn": 100062336942, "schemaType": "RdSAP-Schema-20.0.0"}, {"certificateNumber": "2135-1730-1517-9686-7546", "addressLine1": "79a Westfield Road", "addressLine2": null, "addressLine3": null, "addressLine4": null, "postcode": "GU22 9PX", "postTown": "WOKING", "council": "Woking", "constituency": "Woking", "currentEnergyEfficiencyBand": "C", "registrationDate": "2024-07-12", "uprn": 100061660927, "schemaType": "RdSAP-Schema-20.0.0"}, {"certificateNumber": "2500-4955-0722-3393-3743", "addressLine1": "69 Westfield Road", "addressLine2": null, "addressLine3": null, "addressLine4": null, "postcode": "GU22 9PX", "postTown": "WOKING", "council": "Woking", "constituency": "Woking", "currentEnergyEfficiencyBand": "D", "registrationDate": "2024-03-18", "uprn": 100061660917, "schemaType": "RdSAP-Schema-20.0.0"}], "pagination": {"totalRecords": 13, "currentPage": 1, "totalPages": 3, "nextPage": 2, "prevPage": null, "pageSize": 5}}