{"data": [{"certificateNumber": "9728-3060-4207-8126-0204", "addressLine1": "16 Gorseway", "addressLine2": null, "addressLine3": null, "addressLine4": null, "postcode": "GU52 7NA", "postTown": "FLEET", "council": "Hart", "constituency": "North East Hampshire", "currentEnergyEfficiencyBand": "D", "registrationDate": "2026-03-13", "uprn": 100060402916, "schemaType": "RdSAP-Schema-21.0.1"}, {"certificateNumber": "8070-7426-3010-5312-2296", "addressLine1": "2, Gorseway", "addressLine2": null, "addressLine3": null, "addressLine4": null, "postcode": "GU52 7NA", "postTown": "FLEET", "council": "Hart", "constituency": "North East Hampshire", "currentEnergyEfficiencyBand": "C", "registrationDate": "2020-06-16", "uprn": 100060402903, "schemaType": "RdSAP-Schema-19.0"}, {"certificateNumber": "0175-2810-6695-9391-1481", "addressLine1": "7, Gorseway", "addressLine2": null, "addressLine3": null, "addressLine4": null, "postcode": "GU52 7NA", "postTown": "FLEET", "council": "Hart", "constituency": "North East Hampshire", "currentEnergyEfficiencyBand": "C", "registrationDate": "2019-01-12", "uprn": 100060402908, "schemaType": "RdSAP-Schema-18.0"}, {"certificateNumber": "9366-2811-7407-9128-9451", "addressLine1": "6, Gorseway", "addressLine2": null, "addressLine3": null, "addressLine4": null, "postcode": "GU52 7NA", "postTown": "FLEET", "council": "Hart", "constituency": "North East Hampshire", "currentEnergyEfficiencyBand": "D", "registrationDate": "2018-10-30", "uprn": 100060402907, "schemaType": "RdSAP-Schema-18.0"}, {"certificateNumber": "8258-7629-5530-2591-4906", "addressLine1": "4, Gorseway", "addressLine2": null, "addressLine3": null, "addressLine4": null, "postcode": "GU52 7NA", "postTown": "FLEET", "council": "Hart", "constituency": "North East Hampshire", "currentEnergyEfficiencyBand": "C", "registrationDate": "2018-01-10", "uprn": 100060402905, "schemaType": "RdSAP-Schema-18.0"}], "pagination": {"totalRecords": 8, "currentPage": 1, "totalPages": 2, "nextPage": 2, "prevPage": null, "pageSize": 5}}