{"data": [{"certificateNumber": "5536-2125-7600-0723-2202", "addressLine1": "66 Hamilton Avenue", "addressLine2": null, "addressLine3": null, "addressLine4": null, "postcode": "GU22 8RU", "postTown": "WOKING", "council": "Woking", "constituency": "Woking", "currentEnergyEfficiencyBand": "D", "registrationDate": "2026-05-08", "uprn": 100061645970, "schemaType": "RdSAP-Schema-21.0.1"}, {"certificateNumber": "0340-2497-6230-2107-5881", "addressLine1": "42 Hamilton Avenue", "addressLine2": null, "addressLine3": null, "addressLine4": null, "postcode": "GU22 8RU", "postTown": "WOKING", "council": "Woking", "constituency": "Woking", "currentEnergyEfficiencyBand": "D", "registrationDate": "2023-07-04", "uprn": 100061645946, "schemaType": "RdSAP-Schema-20.0.0"}, {"certificateNumber": "5400-5045-0522-4222-3773", "addressLine1": "44 Hamilton Avenue", "addressLine2": null, "addressLine3": null, "addressLine4": null, "postcode": "GU22 8RU", "postTown": "WOKING", "council": "Woking", "constituency": "Woking", "currentEnergyEfficiencyBand": "D", "registrationDate": "2023-03-24", "uprn": 100061645948, "schemaType": "RdSAP-Schema-20.0.0"}, {"certificateNumber": "9096-3901-0202-9420-9204", "addressLine1": "BARTON COTTAGE", "addressLine2": "63 HAMILTON AVENUE", "addressLine3": "PYRFORD", "addressLine4": null, "postcode": "GU22 8RU", "postTown": "WOKING", "council": "Woking", "constituency": "Woking", "currentEnergyEfficiencyBand": "D", "registrationDate": "2020-12-11", "uprn": 100061645967, "schemaType": "RdSAP-Schema-20.0.0"}, {"certificateNumber": "0969-2860-7289-9371-8905", "addressLine1": "53, Hamilton Avenue", "addressLine2": null, "addressLine3": null, "addressLine4": null, "postcode": "GU22 8RU", "postTown": "WOKING", "council": "Woking", "constituency": "Woking", "currentEnergyEfficiencyBand": "D", "registrationDate": "2019-09-01", "uprn": 100061645957, "schemaType": "RdSAP-Schema-18.0"}], "pagination": {"totalRecords": 18, "currentPage": 1, "totalPages": 4, "nextPage": 2, "prevPage": null, "pageSize": 5}}