{"data": [{"certificateNumber": "2049-3061-8204-8456-6200", "addressLine1": "14 Burnside", "addressLine2": null, "addressLine3": null, "addressLine4": null, "postcode": "GU51 3RE", "postTown": "FLEET", "council": "Hart", "constituency": "North East Hampshire", "currentEnergyEfficiencyBand": "C", "registrationDate": "2026-04-24", "uprn": 100060399560, "schemaType": "RdSAP-Schema-21.0.1"}, {"certificateNumber": "2735-8722-4400-0202-6292", "addressLine1": "21 Burnside", "addressLine2": null, "addressLine3": null, "addressLine4": null, "postcode": "GU51 3RE", "postTown": "FLEET", "council": "Hart", "constituency": "North East Hampshire", "currentEnergyEfficiencyBand": "E", "registrationDate": "2025-02-14", "uprn": 100060399567, "schemaType": "RdSAP-Schema-20.0.0"}, {"certificateNumber": "5510-9067-9002-0320-6592", "addressLine1": "4b Burnside", "addressLine2": null, "addressLine3": null, "addressLine4": null, "postcode": "GU51 3RE", "postTown": "FLEET", "council": "Hart", "constituency": "North East Hampshire", "currentEnergyEfficiencyBand": "D", "registrationDate": "2023-10-25", "uprn": 100060399550, "schemaType": "RdSAP-Schema-20.0.0"}, {"certificateNumber": "0390-2738-0230-2697-1855", "addressLine1": "9 Burnside", "addressLine2": null, "addressLine3": null, "addressLine4": null, "postcode": "GU51 3RE", "postTown": "FLEET", "council": "Hart", "constituency": "North East Hampshire", "currentEnergyEfficiencyBand": "C", "registrationDate": "2023-07-19", "uprn": 100060399556, "schemaType": "RdSAP-Schema-20.0.0"}, {"certificateNumber": "8505-8435-2022-3296-8803", "addressLine1": "7, Burnside", "addressLine2": null, "addressLine3": null, "addressLine4": null, "postcode": "GU51 3RE", "postTown": "FLEET", "council": "Hart", "constituency": "North East Hampshire", "currentEnergyEfficiencyBand": "C", "registrationDate": "2020-08-18", "uprn": 100060399555, "schemaType": "RdSAP-Schema-19.0"}], "pagination": {"totalRecords": 17, "currentPage": 1, "totalPages": 4, "nextPage": 2, "prevPage": null, "pageSize": 5}}