{"data": [{"certificateNumber": "9072-3061-7204-4196-0200", "addressLine1": "3 Pangbourne Hill", "addressLine2": "Pangbourne", "addressLine3": null, "addressLine4": null, "postcode": "RG8 7AS", "postTown": "READING", "council": "West Berkshire", "constituency": "Reading West and Mid Berkshire", "currentEnergyEfficiencyBand": "D", "registrationDate": "2026-04-14", "uprn": 100081246650, "schemaType": "RdSAP-Schema-21.0.1"}, {"certificateNumber": "9330-3531-2500-2405-7571", "addressLine1": "Gulbarg", "addressLine2": "Pangbourne Hill", "addressLine3": "Pangbourne", "addressLine4": null, "postcode": "RG8 7AS", "postTown": "READING", "council": "West Berkshire", "constituency": "Reading West and Mid Berkshire", "currentEnergyEfficiencyBand": "B", "registrationDate": "2025-10-09", "uprn": 100081246603, "schemaType": "SAP-Schema-18.0.0"}, {"certificateNumber": "0340-2187-8510-2505-7421", "addressLine1": "17 Pangbourne Hill", "addressLine2": "Pangbourne", "addressLine3": null, "addressLine4": null, "postcode": "RG8 7AS", "postTown": "READING", "council": "West Berkshire", "constituency": "Reading West and Mid Berkshire", "currentEnergyEfficiencyBand": "E", "registrationDate": "2025-09-12", "uprn": 100080244214, "schemaType": "RdSAP-Schema-21.0.1"}, {"certificateNumber": "2335-4824-0400-0205-9226", "addressLine1": "June Cottage", "addressLine2": "Pangbourne Hill", "addressLine3": "Pangbourne", "addressLine4": null, "postcode": "RG8 7AS", "postTown": "READING", "council": "West Berkshire", "constituency": "Reading West and Mid Berkshire", "currentEnergyEfficiencyBand": "D", "registrationDate": "2025-04-29", "uprn": 100081024633, "schemaType": "RdSAP-Schema-20.0.0"}, {"certificateNumber": "9330-2134-6320-2297-8341", "addressLine1": "15 Pangbourne Hill", "addressLine2": "Pangbourne", "addressLine3": null, "addressLine4": null, "postcode": "RG8 7AS", "postTown": "READING", "council": "West Berkshire", "constituency": "Reading West and Mid Berkshire", "currentEnergyEfficiencyBand": "D", "registrationDate": "2023-12-18", "uprn": 100080244213, "schemaType": "RdSAP-Schema-20.0.0"}], "pagination": {"totalRecords": 17, "currentPage": 1, "totalPages": 4, "nextPage": 2, "prevPage": null, "pageSize": 5}}