{"data": [{"certificateNumber": "0310-2936-9670-2196-3015", "addressLine1": "68 Park Road", "addressLine2": null, "addressLine3": null, "addressLine4": null, "postcode": "OX11 8QP", "postTown": "DIDCOT", "council": "South Oxfordshire", "constituency": "Didcot and Wantage", "currentEnergyEfficiencyBand": "A", "registrationDate": "2026-03-17", "uprn": 100120859054, "schemaType": "RdSAP-Schema-21.0.1"}, {"certificateNumber": "0219-3924-6202-5205-2200", "addressLine1": "58 Park Road", "addressLine2": null, "addressLine3": null, "addressLine4": null, "postcode": "OX11 8QP", "postTown": "DIDCOT", "council": "South Oxfordshire", "constituency": "Didcot and Wantage", "currentEnergyEfficiencyBand": "C", "registrationDate": "2025-12-10", "uprn": 100120859044, "schemaType": "RdSAP-Schema-21.0.1"}, {"certificateNumber": "5090-6740-0132-6193-3953", "addressLine1": "58b Park Road", "addressLine2": null, "addressLine3": null, "addressLine4": null, "postcode": "OX11 8QP", "postTown": "Didcot", "council": "South Oxfordshire", "constituency": "Didcot and Wantage", "currentEnergyEfficiencyBand": "B", "registrationDate": "2025-11-14", "uprn": 10096826411, "schemaType": "SAP-Schema-19.1.0"}, {"certificateNumber": "4635-3739-0109-0164-0292", "addressLine1": "58a Park Road", "addressLine2": null, "addressLine3": null, "addressLine4": null, "postcode": "OX11 8QP", "postTown": "Didcot", "council": "South Oxfordshire", "constituency": "Didcot and Wantage", "currentEnergyEfficiencyBand": "B", "registrationDate": "2025-11-14", "uprn": 10096826410, "schemaType": "SAP-Schema-19.1.0"}, {"certificateNumber": "0690-7464-0222-0509-3953", "addressLine1": "76 Park Road", "addressLine2": null, "addressLine3": null, "addressLine4": null, "postcode": "OX11 8QP", "postTown": "DIDCOT", "council": "South Oxfordshire", "constituency": "Didcot and Wantage", "currentEnergyEfficiencyBand": "F", "registrationDate": "2025-11-12", "uprn": 100120859061, "schemaType": "RdSAP-Schema-21.0.1"}], "pagination": {"totalRecords": 20, "currentPage": 1, "totalPages": 4, "nextPage": 2, "prevPage": null, "pageSize": 5}}