{"data": [{"certificateNumber": "2100-1225-0122-8425-3843", "addressLine1": "19 St. James Close", "addressLine2": null, "addressLine3": null, "addressLine4": null, "postcode": "GU21 7QF", "postTown": "WOKING", "council": "Woking", "constituency": "Woking", "currentEnergyEfficiencyBand": "D", "registrationDate": "2024-08-23", "uprn": 100061657572, "schemaType": "RdSAP-Schema-20.0.0"}, {"certificateNumber": "0370-2585-8350-2994-2761", "addressLine1": "18 St. James Close", "addressLine2": null, "addressLine3": null, "addressLine4": null, "postcode": "GU21 7QF", "postTown": "WOKING", "council": "Woking", "constituency": "Woking", "currentEnergyEfficiencyBand": "C", "registrationDate": "2024-05-15", "uprn": 100061657571, "schemaType": "RdSAP-Schema-20.0.0"}, {"certificateNumber": "1737-9925-4200-0312-6222", "addressLine1": "1 St. James Close", "addressLine2": null, "addressLine3": null, "addressLine4": null, "postcode": "GU21 7QF", "postTown": "WOKING", "council": "Woking", "constituency": "Woking", "currentEnergyEfficiencyBand": "C", "registrationDate": "2023-05-23", "uprn": 100061657554, "schemaType": "RdSAP-Schema-20.0.0"}, {"certificateNumber": "0320-2196-5150-2622-3665", "addressLine1": "17 St. James Close", "addressLine2": null, "addressLine3": null, "addressLine4": null, "postcode": "GU21 7QF", "postTown": "WOKING", "council": "Woking", "constituency": "Woking", "currentEnergyEfficiencyBand": "C", "registrationDate": "2022-05-27", "uprn": 100061657570, "schemaType": "RdSAP-Schema-20.0.0"}, {"certificateNumber": "2151-8769-1199-1267-1247", "addressLine1": "15 St. James Close", "addressLine2": null, "addressLine3": null, "addressLine4": null, "postcode": "GU21 7QF", "postTown": "WOKING", "council": "Woking", "constituency": "Woking", "currentEnergyEfficiencyBand": "D", "registrationDate": "2021-08-27", "uprn": 100061657568, "schemaType": "RdSAP-Schema-20.0.0"}], "pagination": {"totalRecords": 14, "currentPage": 1, "totalPages": 3, "nextPage": 2, "prevPage": null, "pageSize": 5}}