{"data": [{"certificateNumber": "0350-2459-7650-2396-2211", "addressLine1": "6 Vicarage Crescent", "addressLine2": null, "addressLine3": null, "addressLine4": null, "postcode": "TW20 9JP", "postTown": "EGHAM", "council": "Runnymede", "constituency": "Runnymede and Weybridge", "currentEnergyEfficiencyBand": "D", "registrationDate": "2026-05-12", "uprn": 100061504123, "schemaType": "RdSAP-Schema-21.0.1"}, {"certificateNumber": "9380-2433-7500-2705-3551", "addressLine1": "1 Vicarage Crescent", "addressLine2": null, "addressLine3": null, "addressLine4": null, "postcode": "TW20 9JP", "postTown": "EGHAM", "council": "Runnymede", "constituency": "Runnymede and Weybridge", "currentEnergyEfficiencyBand": "D", "registrationDate": "2025-10-17", "uprn": 100062599852, "schemaType": "RdSAP-Schema-21.0.1"}, {"certificateNumber": "0536-3955-2200-9195-4200", "addressLine1": "Wychways", "addressLine2": "Vicarage Crescent", "addressLine3": null, "addressLine4": null, "postcode": "TW20 9JP", "postTown": "EGHAM", "council": "Runnymede", "constituency": "Runnymede and Weybridge", "currentEnergyEfficiencyBand": "C", "registrationDate": "2025-10-17", "uprn": null, "schemaType": "RdSAP-Schema-21.0.1"}, {"certificateNumber": "9535-3912-5202-0279-1204", "addressLine1": "2 Vicarage Crescent", "addressLine2": null, "addressLine3": null, "addressLine4": null, "postcode": "TW20 9JP", "postTown": "EGHAM", "council": "Runnymede", "constituency": "Runnymede and Weybridge", "currentEnergyEfficiencyBand": "D", "registrationDate": "2022-02-10", "uprn": 100061504118, "schemaType": "RdSAP-Schema-20.0.0"}, {"certificateNumber": "9330-2444-1100-2109-3041", "addressLine1": "2a Vicarage Crescent", "addressLine2": null, "addressLine3": null, "addressLine4": null, "postcode": "TW20 9JP", "postTown": "EGHAM", "council": "Runnymede", "constituency": "Runnymede and Weybridge", "currentEnergyEfficiencyBand": "C", "registrationDate": "2021-10-05", "uprn": 100062599950, "schemaType": "RdSAP-Schema-20.0.0"}], "pagination": {"totalRecords": 9, "currentPage": 1, "totalPages": 2, "nextPage": 2, "prevPage": null, "pageSize": 5}}